{
  "project_info": {
    "project_number": "22031446258",
    "firebase_url": "https://strategy-wiki.firebaseio.com",
    "project_id": "strategy-wiki",
    "storage_bucket": "strategy-wiki.appspot.com"
  },
  "client": [
    {
      "client_info": {
        "mobilesdk_app_id": "1:22031446258:android:96a33998af1639e1",
        "android_client_info": {
          "package_name": "org.strategywiki.alpha"
        }
      },
      "oauth_client": [
        {
          "client_id": "22031446258-s4u2ioqab1tqs2qdubqpog3g7f43bhvs.apps.googleusercontent.com",
          "client_type": 1,
          "android_info": {
            "package_name": "org.strategywiki.alpha",
            "certificate_hash": "69fc6d6d250a14bceb3e82dc7b547855888de57e"
          }
        },
        {
          "client_id": "22031446258-ev2g3tmu9185e3ahkit9p35ns6o6k7qd.apps.googleusercontent.com",
          "client_type": 3
        }
      ],
      "api_key": [
        {
          "current_key": "AIzaSyBxkIs66I2B8N5mglcxh0McUURWX1_Valo"
        }
      ],
      "services": {
        "analytics_service": {
          "status": 1
        },
        "appinvite_service": {
          "status": 2,
          "other_platform_oauth_client": [
            {
              "client_id": "22031446258-ev2g3tmu9185e3ahkit9p35ns6o6k7qd.apps.googleusercontent.com",
              "client_type": 3
            }
          ]
        },
        "ads_service": {
          "status": 2
        }
      }
    },
    {
      "client_info": {
        "mobilesdk_app_id": "1:22031446258:android:ed0852f9ef828abb",
        "android_client_info": {
          "package_name": "org.strategywiki"
        }
      },
      "oauth_client": [
        {
          "client_id": "22031446258-6jn5h7t04u9ahiopu1l1cad8cg5sm3s7.apps.googleusercontent.com",
          "client_type": 1,
          "android_info": {
            "package_name": "org.strategywiki",
            "certificate_hash": "69fc6d6d250a14bceb3e82dc7b547855888de57e"
          }
        },
        {
          "client_id": "22031446258-ev2g3tmu9185e3ahkit9p35ns6o6k7qd.apps.googleusercontent.com",
          "client_type": 3
        }
      ],
      "api_key": [
        {
          "current_key": "AIzaSyBxkIs66I2B8N5mglcxh0McUURWX1_Valo"
        }
      ],
      "services": {
        "analytics_service": {
          "status": 1
        },
        "appinvite_service": {
          "status": 2,
          "other_platform_oauth_client": [
            {
              "client_id": "22031446258-ev2g3tmu9185e3ahkit9p35ns6o6k7qd.apps.googleusercontent.com",
              "client_type": 3
            }
          ]
        },
        "ads_service": {
          "status": 2
        }
      }
    },
    {
      "client_info": {
        "mobilesdk_app_id": "1:22031446258:android:cfa1c8caffc49f90",
        "android_client_info": {
          "package_name": "org.strategywiki.beta"
        }
      },
      "oauth_client": [
        {
          "client_id": "22031446258-5h75t13qb6lmm773fpi3jsqkrhkhvfq3.apps.googleusercontent.com",
          "client_type": 1,
          "android_info": {
            "package_name": "org.strategywiki.beta",
            "certificate_hash": "69fc6d6d250a14bceb3e82dc7b547855888de57e"
          }
        },
        {
          "client_id": "22031446258-ev2g3tmu9185e3ahkit9p35ns6o6k7qd.apps.googleusercontent.com",
          "client_type": 3
        }
      ],
      "api_key": [
        {
          "current_key": "AIzaSyBxkIs66I2B8N5mglcxh0McUURWX1_Valo"
        }
      ],
      "services": {
        "analytics_service": {
          "status": 1
        },
        "appinvite_service": {
          "status": 2,
          "other_platform_oauth_client": [
            {
              "client_id": "22031446258-ev2g3tmu9185e3ahkit9p35ns6o6k7qd.apps.googleusercontent.com",
              "client_type": 3
            }
          ]
        },
        "ads_service": {
          "status": 2
        }
      }
    },
    {
      "client_info": {
        "mobilesdk_app_id": "1:22031446258:android:b5c3ab58dd256ef3",
        "android_client_info": {
          "package_name": "org.strategywiki.dev"
        }
      },
      "oauth_client": [
        {
          "client_id": "22031446258-4cbmiebjj6sllhubge5ntjmpikkio230.apps.googleusercontent.com",
          "client_type": 1,
          "android_info": {
            "package_name": "org.strategywiki.dev",
            "certificate_hash": "69fc6d6d250a14bceb3e82dc7b547855888de57e"
          }
        },
        {
          "client_id": "22031446258-ev2g3tmu9185e3ahkit9p35ns6o6k7qd.apps.googleusercontent.com",
          "client_type": 3
        }
      ],
      "api_key": [
        {
          "current_key": "AIzaSyBxkIs66I2B8N5mglcxh0McUURWX1_Valo"
        }
      ],
      "services": {
        "analytics_service": {
          "status": 1
        },
        "appinvite_service": {
          "status": 2,
          "other_platform_oauth_client": [
            {
              "client_id": "22031446258-ev2g3tmu9185e3ahkit9p35ns6o6k7qd.apps.googleusercontent.com",
              "client_type": 3
            }
          ]
        },
        "ads_service": {
          "status": 2
        }
      }
    }
  ],
  "configuration_version": "1"
}